<svg width="35" height="34" viewBox="0 0 35 34" fill="none" xmlns="http://www.w3.org/2000/svg">
<path d="M6.5 17V33H14.5V23H20.5V33H28.5V17H33L17.5 1.5L2 17H6.5Z" stroke="white" stroke-width="1.5"/>
</svg>
