<svg width="100" height="100" viewBox="0 0 100 100" fill="none" xmlns="http://www.w3.org/2000/svg">
<circle cx="50" cy="50" r="49.5" stroke="#66E4EE"/>
<path fill-rule="evenodd" clip-rule="evenodd" d="M33.9554 54.6132C31.626 54.6132 28.4188 53.8827 24.334 52.4219V58.6846C27.9979 60.4111 31.2051 61.2743 33.9554 61.2743C36.7058 61.2743 40.0819 60.4111 44.0838 58.6846C44.0838 58.3337 44.0838 56.2462 44.0838 52.4219C42.0437 53.2457 37.4497 54.6132 33.9554 54.6132Z" stroke="#004969" stroke-width="1.3"/>
<path fill-rule="evenodd" clip-rule="evenodd" d="M33.9554 48.2099C31.626 48.2099 28.4188 47.4794 24.334 46.0186V52.2813C27.9979 54.0078 31.2051 54.871 33.9554 54.871C36.7058 54.871 40.0819 54.0078 44.0838 52.2813C44.0838 51.9304 44.0838 49.8428 44.0838 46.0186C42.0437 46.8424 37.4497 48.2099 33.9554 48.2099Z" stroke="#004969" stroke-width="1.3"/>
<path fill-rule="evenodd" clip-rule="evenodd" d="M33.9554 41.7987C31.626 41.7987 28.4188 41.0683 24.334 39.6074V45.8702C27.9979 47.5966 31.2051 48.4599 33.9554 48.4599C36.7058 48.4599 40.0819 47.5966 44.0838 45.8702C44.0838 45.5193 44.0838 43.4317 44.0838 39.6074C42.0437 40.4313 37.4497 41.7987 33.9554 41.7987Z" stroke="#004969" stroke-width="1.3"/>
<path d="M24 39.1922C26.1388 38.0257 29.5418 37.4424 34.2088 37.4424C38.8759 37.4424 42.2935 38.0257 44.4617 39.1922" stroke="#004969" stroke-width="1.3"/>
<path d="M48.2998 52.5029C49.6739 52.8317 50.961 52.996 52.1611 52.996C52.8471 52.996 53.5721 52.9423 54.3361 52.8349" stroke="#004969" stroke-width="1.3"/>
<path fill-rule="evenodd" clip-rule="evenodd" d="M52.1681 29.3349C49.8386 29.3349 46.6314 28.6044 42.5466 27.1436V33.4063C46.2106 35.1328 49.4177 35.996 52.1681 35.996C54.9185 35.996 58.2946 35.1328 62.2964 33.4063C62.2964 33.0554 62.2964 30.9678 62.2964 27.1436C60.2563 27.9674 55.6623 29.3349 52.1681 29.3349Z" stroke="#004969" stroke-width="1.3"/>
<path d="M42.1929 26.7499C44.3317 25.5833 47.7346 25 52.4017 25C57.0687 25 60.4863 25.5833 62.6545 26.7499" stroke="#004969" stroke-width="1.3"/>
<path d="M48.2998 46.8828C53.0077 47.9349 57.7156 47.4903 62.4235 45.5488" stroke="#004969" stroke-width="1.3"/>
<path d="M48.2998 40.5263C53.0077 41.5785 57.7156 41.1338 62.4235 39.1924" stroke="#004969" stroke-width="1.3"/>
<path d="M62.2964 46.0195V32.5625" stroke="#004969" stroke-width="1.3"/>
<path d="M64.908 74.1436C71.5354 74.1436 76.908 68.771 76.908 62.1436C76.908 55.5161 71.5354 50.1436 64.908 50.1436C58.2805 50.1436 52.908 55.5161 52.908 62.1436C52.908 68.771 58.2805 74.1436 64.908 74.1436Z" stroke="#004969" stroke-width="1.3"/>
<path d="M69.076 57.8269C66.6923 55.5251 62.8939 55.5914 60.592 57.975C58.2901 60.3587 58.3564 64.1571 60.7401 66.459C63.1238 68.7609 66.9222 68.6946 69.2241 66.3109" stroke="#004969" stroke-width="1.3"/>
<path d="M57.0359 60.7314H65.8584" stroke="#004969" stroke-width="1.3"/>
<path d="M57.0359 63.7236H65.8584" stroke="#004969" stroke-width="1.3"/>
</svg>
